…
# valores missings
missing_amazonas_masculino1 <- amazonas_masculino1 %>%
    summarise_all(~ sum(is.na(.))) %>%
    pivot_longer(everything(), names_to = "variable", values_to = "n")
missing_amazonas_masculino1
```

    ## # A tibble: 37 × 2
    ##    variable     n
    ##    <chr>    <int>
    ##  1 Edad         0
    ##  2 1995         0
    ##  3 1996         0
    ##  4 1997         0
    ##  5 1998         0
    ##  6 1999         0
    ##  7 2000         0
    ##  8 2001         0
    ##  9 2002         0
    ## 10 2003         0
    ## # ℹ 27 more rows
…
